{
    "/js/test_scr_home.js": "/js/test_scr_home.js",
    "/js/test_scr_tableboard.js": "/js/test_scr_tableboard.js",
    "/js/app.js": "/js/app.js",
    "/css/test.css": "/css/test.css",
    "/css/test_welcome.css": "/css/test_welcome.css",
    "/css/test_scr_index.css": "/css/test_scr_index.css",
    "/css/test_scr_login.css": "/css/test_scr_login.css",
    "/css/test_scr_dashboard.css": "/css/test_scr_dashboard.css",
    "/css/miEmailResetStyles.css": "/css/miEmailResetStyles.css",
    "/css/errorStyles.css": "/css/errorStyles.css",
    "/css/miRegisterStyles.css": "/css/miRegisterStyles.css",
    "/css/miLogInStyles.css": "/css/miLogInStyles.css",
    "/css/test_scr_tableboard.css": "/css/test_scr_tableboard.css",
    "/css/dashboard.css": "/css/dashboard.css",
    "/css/tableboard.css": "/css/tableboard.css",
    "/js/test_scr_index.js": "/js/test_scr_index.js",
    "/js/test_scr_register.js": "/js/test_scr_register.js",
    "/js/test_scr_login.js": "/js/test_scr_login.js",
    "/resources/assets/js/tmp/test_scr_register.js": "/resources/assets/js/tmp/test_scr_register.js",
    "/resources/assets/js/tmp/test_scr_login.js": "/resources/assets/js/tmp/test_scr_login.js"
}